<svg width="9" height="9" viewBox="0 0 9 9" fill="none" xmlns="http://www.w3.org/2000/svg">
<path d="M5.55469 3.63281H8.375V5.67188H5.55469V8.85938H3.40625V5.67188H0.578125V3.63281H3.40625V0.578125H5.55469V3.63281Z" fill="white"/>
</svg>
