<svg width="40" height="40" viewBox="0 0 40 40" fill="none" xmlns="http://www.w3.org/2000/svg">
<rect width="40" height="40" fill="#F7F6F3"/>
<path d="M18.1396 23.9941C18.1592 22.832 18.291 21.9141 18.5352 21.2402C18.7793 20.5664 19.2773 19.8193 20.0293 18.999L21.9482 17.0215C22.7686 16.0938 23.1787 15.0977 23.1787 14.0332C23.1787 13.0078 22.9102 12.207 22.373 11.6309C21.8359 11.0449 21.0547 10.752 20.0293 10.752C19.0332 10.752 18.2324 11.0156 17.627 11.543C17.0215 12.0703 16.7188 12.7783 16.7188 13.667H14.0088C14.0283 12.085 14.5898 10.8105 15.6934 9.84375C16.8066 8.86719 18.252 8.37891 20.0293 8.37891C21.875 8.37891 23.3105 8.87695 24.3359 9.87305C25.3711 10.8594 25.8887 12.2168 25.8887 13.9453C25.8887 15.6543 25.0977 17.3389 23.5156 18.999L21.9189 20.5811C21.2061 21.3721 20.8496 22.5098 20.8496 23.9941H18.1396ZM18.0225 28.6377C18.0225 28.1982 18.1543 27.832 18.418 27.5391C18.6914 27.2363 19.0918 27.085 19.6191 27.085C20.1465 27.085 20.5469 27.2363 20.8203 27.5391C21.0938 27.832 21.2305 28.1982 21.2305 28.6377C21.2305 29.0771 21.0938 29.4434 20.8203 29.7363C20.5469 30.0195 20.1465 30.1611 19.6191 30.1611C19.0918 30.1611 18.6914 30.0195 18.418 29.7363C18.1543 29.4434 18.0225 29.0771 18.0225 28.6377Z" fill="#898989"/>
</svg>
